Q
 6,40
QA
 22
QREV
 13,6,25,5,16,4,2,33,26,9,1,46,45,44,40,38,34,23,3,43,27,21,15,12,11,8,7
QREV’S
 3
QUALITY
 6,2,31,25,26,28,42,32,17,14,39,37,35,30,24,22,19,4,33,21,13,12
QUALITY—A
 31
QUALITY—QREV
 25
QUERY
 40,38,36,34,33,31,29,25,23,20,10
QUICKLY
 12
Q—ALLOWS
 40
