T
 6
T-DISTRIBUTION
 6
TABLE
 6,40,31,12,36,34,29,20,33,38,25,16,13
TABLES
 12,6,4,2
TABLET
 6,4
TAG
 18
TAGGED
 9
TECHNICAL
 3
TECHNIQUE
 25
TELEDYNE
 2
TELLS
 25
TEMP
 23,24
TEMPATURE
 23
TEMPERATURE
 23,24
TEMPERATURES
 24
TEND
 34
TEST
 25,28,18,19,27,26,6,22,13
TEST(S
 27,28,26,25
TESTS
 25,18,26,13,28,27,19
TEXT
 6,18,21
TEXTUAL
 26
THAN
 35,42,37,32,30,24,14,39,36,31,29,28,27,21,6
THAT
 6,25,38,36,29,40,34,33,23,45,31,26,21,20,19,16,13,2,46,44,43,22,15,12,7,5,4
THE
 6,38,25,34,36,40,29,31,23,20,33,16,2,41,13,18,12,21,26,37,32,43,42,30,24,11,9,35,10,46,28,22,5,4,45,44,15,3,27,14,8,7,19,39,17
THEIR
 18
THEM
 46,38,11,6,2
THEN
 6,38,27,16,31,29,23,20,13,12
THEORETICAL
 6
THERE
 22,27,25,24,19,6,5
THEREFORE
 36
THERMISTER
 23
THESE
 16,8,40,36,33,31,13,10,2
THETHE
 30
THEY
 44,43,38,16,13,9
THIS
 6,25,38,23,36,16,44,31,29,41,40,34,33,20,15,3,2,46,21,18,13,9,8,7,5
THOSE
 44,38
THREE
 31,28,26,13,6
THRESHOLD
 38,36,29,31,20
THRESHOLDS
 37,36,35,32,31,30,22,2
THROUGH
 6,12,25,18,7
THUS
 6,38
TIDAL
 7,44
TIME
 20,36,25,31,23,18,45,33,29,6,43,21,15,13,9
TIMES
 36,31
TO
 6,36,38,34,29,40,23,31,25,20,33,41,16,2,5,21,13,12,18,7,43,37,32,30,26,4,45,44,27,11,39,28,15,14,10,46,22,8,3
TOGGLE
 7,44
TOO
 35
TOOBAR
 29
TOOLBAR
 10,40,38,36,34,33,25,23,20,31,29
TOOLS
 10
TOP
 38,6,29,36,34,23,9
TOP—THE
 38
TOTAL
 31,36,29,6,33,40,34,14,37,35,32,30
TOTALS
 6
TOTAL—NUMBER
 36,29
TOUCH
 6
TRACK
 29,36,25,33,40,6,31,27,26,13
TRACKING
 2
TRACKS
 33,31
TRANSDUCER
 35,36
TRANSDUCERS
 34
TRANSECT
 41,38,40,29,36,34,33,31,22,12,6,23,20,42,37,35,32,30,25,44,14,11
TRANSECT.CLICKING
 23
TRANSECTS
 14,22,38,41,20,7,6,36,29,13,44,35,34,33,31,12,45,23
TRAVEL
 29
TRDI
 13,40,16,36,4,2
TREND
 25
TRIANGULAR
 40
TRIANGULAR—SETS
 40
TRY
 34
TURN
 16,33,6
TURNED
 34
TURNS
 38,16
TWO
 25,6,36,34,2
TYPE
 41,40,42,38,33,29,25,16,13,36,34,21,20,11
TYPE,RIGHT
 41
TYPES
 20,36,16
TYPE—SPECIFIES
 40
TYPE—THE
 25
TYPICALLY
 12
TYPING
 16,38
