C
 40
CAL
 21
CAL/EVAL
 21
CALIBRATED
 22
CALIBRATION
 22,21,20,13
CALIBRATIONS
 21
CAN
 41,34,38,20,16,12,25,23,21,18,6,43,40,11,2,44,33,31,29,15,13,10,9,8,7,5
CANCEL
 38,13
CANCELS
 38
CANNOT
 38,45,36,33,31,29,18,13,9,6
CAPABILITIES
 2
CAREFULLY
 39,20
CATEGORIES
 6
CAUSE
 36,34
CAUTION
 37,32,30,6,42,39,35,28,24,22,19,17,14
CAUTIONS
 36,29
CELL
 38,36
CELLS
 36,6,38,37,29,31
CELLS—HIGHLIGHTS
 38
CELLS—TOTAL
 36
CELSIUS
 24,23
CENTER
 38
CHANGE
 36,29,31,23,34,20,38,33,12,6,41,22,16,45,40,25,13
CHANGED
 38,41,31,23,6,43,40,36,34,33,29,12
CHANGES
 38,16,31,29,23,20,9
CHANGE—THE
 36,34,33,31,29
CHANGING
 20,11
CHARACTERISTIC
 12
CHARACTERISTICS
 38,31,2
CHECK
 22,28,35,14,42,24,39,37,32,30,34,19,6,33,31,23,17,38,25,20
CHECKED
 14,44,7,13,25,6
CHECKING
 25,20,2
CHECKS
 42,17,14,28,24,22,19,37,35,32,30,25,13,6
CHECK—A
 17,28,22
CHECK—ALL
 28,19
CHECK—AT
 19
CHECK—CHANGE
 22
CHECK—DIFFERENCE
 24
CHECK—DISCHARGE
 42
CHECK—DISTANCE
 42
CHECK—EDGE
 42
CHECK—GPS
 22
CHECK—MAGNETIC
 22
CHECK—MEAN
 22
CHECK—MORE
 37,35,32,30
CHECK—MOVING-BED
 28
CHECK—NO
 37,35,32,30,28
CHECK—NUMBER
 14
CHECK—ONE
 14
CHECK—PITCH
 22
CHECK—ROLL
 22
CHECK—SELECTED
 39
CHECK—STANDARD
 22
CHECK—TEMPERATURE
 24
CHECK—THE
 22
CHECK—THERE
 24,19
CHECK—TOTAL
 14
CHECK—TRANSDUCER
 35
CHECK—VALID
 28
CHG
 31
CHG—THE
 31
CHOICES
 38
CHOOSE
 6
CHOOSES
 25
CIRCLE
 34,31
CIRCLES
 34,25,38,36,29
CIRCLES)—CELLS
 38
CLEAR
 20
CLICK
 16,13,38,34,25,23,12,7,5
CLICKED
 34,12,9
CLICKING
 41,23,33,20,40,34,12,11,9,6,46,36,31,29,13,10
CLOSE
 46,38,40,36,29,21,18,34,33,31,25,23,20,16,13
CLOSED
 6
CLOSES
 38,46,34,33,31,25,23,20,16
CLOSEST
 40
CLOSURE
 25
CM
 36
CODED
 38,26
CODES
 36,29
COEF
 41,40
COEFFICIENT
 40,41,6
COEF—COEFFICIENT
 40
COLLECTED
 38,2,23,21,18,16
COLLECTION
 42,40,23
COLON
 6
COLOR
 36,6,40,38,34,29,28,26
COLORED
 38,42,24,22,19,17,14,12,6
COLORS
 20,38
COLUMN
 23,40,6,25,34,41
COLUMNS
 6,36,31,29,25,12
COMBINATION
 38,16
COMBINED
 25,2
COMBINES
 6
COMMENT
 9,6,25,45,40,38,36,34,33,31,29,23,21,20,18,16
COMMENTS
 45,9,6,5
COMMON
 8,2
COMMONLY
 13,2
COMMUNICATE
 5
COMP
 34
COMPARE
 34
COMPARED
 33,31,23,22,20
COMPASS
 22,20,21,13,25
COMPASSCAL
 21,13
COMPLETE
 7
COMPLETED
 28,26,22,27,25,19,18,6
COMPLETELY
 11
COMPLETES
 25
COMPONENTS
 6
COMPOSITE
 38,33,34
COMPRISE
 6
COMPUTATION
 38,2,44,40,33,31,6,4
COMPUTATIONAL
 2
COMPUTATIONS
 6,34,40
COMPUTE
 6,41,40,36,34,31,27,23,16,2
COMPUTED
 34,25,23,40,6,38,37,36,35,32,30,29
COMPUTED—THE
 23
COMPUTER
 2
COMPUTING
 40,38,6
CONDITION
 25,27,26,6
CONDITIONS
 9,6
CONFIGURATION
 16,6
CONFIGURE
 2
CONROL
 31
CONSECUTIVE
 37,35,32,30
CONSEQUENTLY
 2
CONSIDER
 6
CONSIDERED
 45
CONSIDERS
 25,13
CONSISTENCY
 40,4
CONSISTENT
 42,2,35,22,4,15,14
CONSISTS
 6
CONSTANT
 38
CONTAIN
 40,44,36,29
CONTAINING
 40,25,16
CONTAINS
 6,40,13
CONTINUOUS
 34
CONTOUR
 36,40
CONTROL
 38,25,20,40,36,34,33,31,29,23,21,18,16
CONTROLLED
 31,33
CONTROLS
 38,16,3
CONVENTIONS
 13
COORDINATES
 13
CORRECT
 25,45,27
CORRECTING
 25
CORRECTION
 31,28,25,32
CORRECTIONS
 27
CORRECTLY
 2
CORRESPONDS
 34
COULD
 2,23,6
COUPLE
 7
COV
 6,14
COVERAGE
 6
CREATED
 2
CRITERIA
 26,25,4
CRITICAL
 28,25,6
CROSS
 34,6,25
CROSS-SECTION
 6
CROSS-SECTIONAL
 6
CURRENT
 29,36,13,31,20,2
CURRENTLY
 36,33,23,31,25,21
CURSOR
 6,12
CUSTOM
 40,41
CUSTOM—ALLOWS
 40
CUTOFF
 38
